HW5: dplyr2

Do NOT use a `for`, `while`, or `repeat` loop!
Whenever using `select()`, make sure to write `dplyr::select()` to avoid
conflicts with other packages.

1. Load the `tidyverse` package and use `read_csv` to load
   `/course/data/nations.csv` and assign it to a tibble `nations`.

   To check your answer:

   The output of `print(nations, n = 5)` is

   ```
   # A tibble: 5,697 x 11
     iso2c iso3c country  year gdp_percap life_expect population
     <chr> <chr> <chr>   <dbl>      <dbl>       <dbl>      <dbl>
   1 AD    AND   Andorra  2007         NA          NA      82683
   2 AD    AND   Andorra  2011         NA          NA      83751
   3 AD    AND   Andorra  2013         NA          NA      80788
   4 AD    AND   Andorra  2008         NA          NA      83861
   5 AD    AND   Andorra  1992         NA          NA      58888
   # … with 5,692 more rows, and 4 more variables: birth_rate <dbl>,
   #   neonat_mortal_rate <dbl>, region <chr>, income <chr>
   ```
…
   To check your answer:

   The output of `print(longevity, n = 5)` is

   ```
   # A tibble: 175 x 5
     country         gdp_percap life_expect population region
     <chr>                <dbl>       <dbl>      <dbl> <chr>
   1 United Arab Em…     72400.        77.3    9269612 Middle East & Nor…
   2 Afghanistan          1944.        63.7   34656032 South Asia
   3 Antigua and Ba…     22661.        76.4     100963 Latin America & C…
   4 Albania             11540.        78.3    2876101 Europe & Central …
   5 Armenia              8833.        74.6    2924816 Europe & Central …
   # … with 170 more rows
   ```
…
   To check your answer:

   The output of `print(ea_na_75_85, n = 5)` is

   ```
   # A tibble: 15 x 5
     country           gdp_percap life_expect population region
     <chr>                  <dbl>       <dbl>      <dbl> <chr>
   1 Hong Kong SAR, C…     58618.        84.2    7336600 East Asia & Pac…
   2 Japan                 42281.        84.0  126994511 East Asia & Pac…
   3 Macao SAR, China     105420.        83.8     612167 East Asia & Pac…
   4 Singapore             87833.        82.8    5607283 East Asia & Pac…
   5 Australia             46012.        82.5   24210809 East Asia & Pac…
   # … with 10 more rows
   ```
…
   To check your answer:

   The output of `print(top_10_perc_us, n = 5)` is

   ```
   # A tibble: 19 x 6
     country      gdp_percap life_expect population region      perc_rank
     <chr>             <dbl>       <dbl>      <dbl> <chr>           <dbl>
   1 Hong Kong S…     58618.        84.2    7336600 East Asia …     1.
   2 Japan            42281.        84.0  126994511 East Asia …     0.994
   3 Macao SAR, …    105420.        83.8     612167 East Asia …     0.989
   4 Switzerland      63889.        82.9    8372413 Europe & C…     0.983
   5 Spain            36305.        82.8   46484533 Europe & C…     0.977
   # … with 14 more rows
   ```
…
   To check your answer:

   The output of `print(gdp_by_region, n = 5)` is

   ```
   # A tibble: 189 x 3
   # Groups:   region [7]
     region               year total_gdp
     <chr>               <dbl>     <dbl>
   1 East Asia & Pacific  1990      5.59
   2 East Asia & Pacific  1991      6.10
   3 East Asia & Pacific  1992      6.57
   4 East Asia & Pacific  1993      7.11
   5 East Asia & Pacific  1994      7.71
   # … with 184 more rows
   ```
…
