HW5: dplyr7

Do NOT use a `for`, `while`, or `repeat` loop!
Whenever using `select()`, make sure to write `dplyr::select()` to avoid
conflicts with other packages.

1. Load the `tidyverse` package and load the `msleep` tibble.

   To check your answer:

   The output of `print(msleep, n = 5)` is

   ```
   # A tibble: 83 x 11
     name  genus vore  order conservation sleep_total sleep_rem
     <chr> <chr> <chr> <chr> <chr>              <dbl>     <dbl>
   1 Chee… Acin… carni Carn… lc                  12.1      NA
   2 Owl … Aotus omni  Prim… <NA>                17         1.8
   3 Moun… Aplo… herbi Rode… nt                  14.4       2.4
   4 Grea… Blar… omni  Sori… lc                  14.9       2.3
   5 Cow   Bos   herbi Arti… domesticated         4         0.7
   # … with 78 more rows, and 4 more variables: sleep_cycle <dbl>,
   #   awake <dbl>, brainwt <dbl>, bodywt <dbl>
   ```
…
4. Select the animals whose order is `Primates` and save the resulting
   tibble into `primate`.
   To do that, you can use
        - `filter()` function to select the animals whose order are primates.

   To check your answer:

   The output of `print(primate, n = 5)` is

   ```
   # A tibble: 12 x 11
     name  genus vore  order conservation sleep_total sleep_rem
     <chr> <chr> <chr> <chr> <chr>              <dbl>     <dbl>
   1 Owl … Aotus omni  Prim… <NA>                17         1.8
   2 Griv… Cerc… omni  Prim… lc                  10         0.7
   3 Pata… Eryt… omni  Prim… lc                  10.9       1.1
   4 Gala… Gala… omni  Prim… <NA>                 9.8       1.1
   5 Human Homo  omni  Prim… <NA>                 8         1.9
   # … with 7 more rows, and 4 more variables: sleep_cycle <dbl>,
   #   awake <dbl>, brainwt <dbl>, bodywt <dbl>
   ```
…
   To check your answer:

   The output of `print(brain_primate, n = 5)` is

   ```
   # A tibble: 9 x 8
     name  genus brain_pro brainwt bodywt sleep_total sleep_rem
     <chr> <chr>     <dbl>   <dbl>  <dbl>       <dbl>     <dbl>
   1 Owl … Aotus    0.0323  0.0155   0.48        17         1.8
   2 Pata… Eryt…    0.0115  0.115   10           10.9       1.1
   3 Gala… Gala…    0.0250  0.005    0.2          9.8       1.1
   4 Human Homo     0.0213  1.32    62            8         1.9
   5 Maca… Maca…    0.0263  0.179    6.8         10.1       1.2
   # … with 4 more rows, and 1 more variable: sleep_cycle <dbl>
   ```
