HW5: tidyr5

Do NOT use a `for`, `while`, or `repeat` loop!
Whenever using `select()`, make sure to write `dplyr::select()` to avoid
conflicts with other packages.

1. Load the `tidyverse` package and use `as_tibble` to convert
   `iris` into a tibble.

   To check your answer:

   The output of `print(iris, n = 5)` is

   ```
   # A tibble: 150 x 5
     Sepal.Length Sepal.Width Petal.Length Petal.Width Species
            <dbl>       <dbl>        <dbl>       <dbl> <fct>
   1          5.1         3.5          1.4         0.2 setosa
   2          4.9         3            1.4         0.2 setosa
   3          4.7         3.2          1.3         0.2 setosa
   4          4.6         3.1          1.5         0.2 setosa
   5          5           3.6          1.4         0.2 setosa
   # … with 145 more rows
   ```
…
3. First, let's compute the column that contains the counts across the
   different species of iris and assign it to `species_count`, which should
   contain two colums `Species` and `num`, representing each specie of iris
   and how many of each specie are found in the dataset.
   To do that, you can use `count()` (pay attention to the `name` argument).

   To check your answer:

   The output of `print(species_count, n = 1)` is

   ```
   # A tibble: 3 x 2
     Species   num
     <fct>   <int>
   1 setosa     50
   # … with 2 more rows
   ```
…
   To check your answer:

   The output of `print(summary_long, n = 5)` is

   ```
   # A tibble: 24 x 3
     variable     stat    value
     <chr>        <chr>   <dbl>
   1 Sepal.Length Min.      4.3
   2 Sepal.Width  Min.      2
   3 Petal.Length Min.      1
   4 Petal.Width  Min.      0.1
   5 Sepal.Length 1st Qu.   5.1
   # … with 19 more rows
   ```
…
7. We are getting closer! The final step: we need to transpose our tibble to
   something similar to `summary(iris)`. Transpose `summary_stats_tidy` into
   a tibble `summary_stats_transposed`. It should have five columns:
   the first, named `Stat` contains the name of the summary statistic
   and the others (`Petal.Length`, `Petal.Width`, `Sepal.Length` and
   `Sepal.Width`) contain the values for each variable.
   To do that, you can successively use `pivot_longer` and `pivot_wider`.

   To check your answer:

   The output of `print(summary_stats_transposed, n = 5)` is

   ```
   # A tibble: 6 x 5
     Stat    Sepal.Length Sepal.Width Petal.Length Petal.Width
     <chr>          <dbl>       <dbl>        <dbl>       <dbl>
   1 Min.            4.3         2            1           0.1
   2 1st Qu.         5.1         2.8          1.6         0.3
   3 Median          5.8         3            4.35        1.3
   4 Mean            5.84        3.06         3.76        1.20
   5 3rd Qu.         6.4         3.3          5.1         1.8
   # … with 1 more row
   ```
