…
   To check your answer:

   The output of `print(total_mentions, n = 5)` is

   ```
   # A tibble: 425 x 4
      year total_mentions total_page_count total_book_count
     <int>          <dbl>            <int>            <int>
   1  1505          32059              231                1
   2  1507          49586              477                1
   3  1515         289011             2197                1
   4  1520          51783              223                1
   5  1524         287177             1275                1
   # … with 420 more rows
   ```
…
6. From `relative_mention_counts`, extract a new tibble
   `examples_mention_counts` by
     - keeping only the terms `"1883"`, `"1910"` and `"1950"`,
     - transform the terms from characters to a factor in which the levels
       are in reversed alphabetical order (`"1950"`, `"1910"` and `"1883"`)
   Hint: you can use `filter()`, `mutate()` and `fct_rev()`.
   Note: the order matters to reproduce the same colors as the original
   figure without setting them explicitely when generating the plot.

   To check your answer:

   The output of `print(examples_mention_counts, n = 5)` is

   ```
   # A tibble: 825 x 5
     term   year n_mentions total_mentions frac_total
     <fct> <int>      <int>          <dbl>      <dbl>
   1 1883   1515          1         289011 0.00000346
   2 1883   1520          1          51783 0.0000193
   3 1883   1524         15         287177 0.0000522
   4 1883   1574          4          62235 0.0000643
   5 1883   1575          3         186706 0.0000161
   # … with 820 more rows
   ```
…
