…
5. From `trips_start_times`, extract a tibble `trips_per_hour` by
   computing, for each hour of the day,
     - `num_trips`, the total number of trips,
     - `num_days`, the number of days in which there was at least one trip,
     - `mean_trips`, the ratio between the previous two.
   Hint:  you can use `group_by()`, `summarize()`, as well as `n()` and
   `n_distinct()`.

   To check your answer:

   The output of `print(trips_per_hour, n = 5)` is

   ```
   # A tibble: 24 x 4
     start_hour num_trips num_days mean_trips
          <int>     <int>    <int>      <dbl>
   1          0       986       31      31.8
   2          1       506       31      16.3
   3          2       322       31      10.4
   4          3       193       30       6.43
   5          4       195       31       6.29
   # … with 19 more rows
   ```
