…
   To check your answer:

   The output of `print(department, n = 5)` is

   ```
   # A tibble: 40 x 3
     Department_ID Department_Name                DOE
     <chr>         <chr>                          <dttm>
   1 IDEPT4670     Aerospace Engineering          1961-05-31 00:00:00
   2 IDEPT5528     Biosciences and Bioengineering 1943-06-28 00:00:00
   3 IDEPT3115     Chemical Engineering           1940-05-01 00:00:00
   4 IDEPT5881     Chemistry                      2013-06-08 00:00:00
   5 IDEPT4938     Civil Engineering              1941-10-27 00:00:00
   # … with 35 more rows
   ```

   The output of `print(employee, n = 5)` is

   ```
   # A tibble: 1,000 x 4
     Employee_ID DOB                 DOJ                 Department_ID
     <chr>       <dttm>              <dttm>              <chr>
   1 IU196557    1983-02-23 00:00:00 2009-10-31 00:00:00 IDEPT4938
   2 IU449901    1985-09-02 00:00:00 2009-06-07 00:00:00 IDEPT2357
   3 IU206427    1971-07-30 00:00:00 2008-05-09 00:00:00 IDEPT4670
   4 IU688905    1973-07-20 00:00:00 2002-01-17 00:00:00 IDEPT2601
   5 IU634582    1991-11-16 00:00:00 2000-02-13 00:00:00 IDEPT7626
   # … with 995 more rows
   ```

   The output of `print(s_admission, n = 5)` is

   ```
   # A tibble: 4,000 x 5
     Student_ID DOA                 DOB                 Department_Choi…
     <chr>      <dttm>              <dttm>              <chr>
   1 SID201311… 2013-07-01 00:00:00 1996-02-05 00:00:00 IDEPT7783
   2 SID201311… 2013-07-01 00:00:00 1995-07-31 00:00:00 IDEPT6347
   3 SID201311… 2013-07-01 00:00:00 1995-09-05 00:00:00 IDEPT1836
   4 SID201311… 2013-07-01 00:00:00 1996-01-12 00:00:00 IDEPT8473
   5 SID201311… 2013-07-01 00:00:00 1995-07-30 00:00:00 IDEPT5528
   # … with 3,995 more rows, and 1 more variable:
   #   Department_Admission <chr>
   ```
…
   To check your answer:

   The output of `print(employee_new, n = 5)` is

   ```
   # A tibble: 1,000 x 5
     Employee_ID Department_ID   age seniority seniority_level
     <chr>       <chr>         <dbl>     <dbl> <fct>
   1 IU196557    IDEPT4938        37        10 junior
   2 IU449901    IDEPT2357        34        10 junior
   3 IU206427    IDEPT4670        48        11 senior
   4 IU688905    IDEPT2601        46        18 senior
   5 IU634582    IDEPT7626        28        20 senior
   # … with 995 more rows
   ```
…
   To check your answer:

   The output of `print(s_admission_new, n = 5)` is

   ```
   # A tibble: 4,000 x 4
     Student_ID  Department_Admission   age school_year
     <chr>       <chr>                <dbl> <fct>
   1 SID20131143 IDEPT7783               24 graduate
   2 SID20131151 IDEPT6347               24 graduate
   3 SID20131171 IDEPT1836               24 graduate
   4 SID20131176 IDEPT8473               24 graduate
   5 SID20131177 IDEPT5528               24 graduate
   # … with 3,995 more rows
   ```

   The output of `print(tail(s_admission_new), n = 5)` is

   ```
   # A tibble: 6 x 4
     Student_ID  Department_Admission   age school_year
     <chr>       <chr>                <dbl> <fct>
   1 SID20189917 IDEPT6347               19 freshman
   2 SID20189921 IDEPT7005               18 freshman
   3 SID20189926 IDEPT1836               19 freshman
   4 SID20189949 IDEPT4938               18 freshman
   5 SID20189982 IDEPT6347               19 freshman
   # … with 1 more row
   ```


4. From `s_performance`, extract a tibble `s_performance_new` with columns
   `Student_ID`, `mean_score`, `min_score` and `max_score`. `mean_score`,
   `min_score` and `max_score` are aggregated across semesters and papers.
   To do this, you can use:
      - `group_by()` to group the data by `Student_ID`.
      - `summarize()` to calculate the mean, minimum and maximum of `Marks`.

   To check your answer:

   The output of `print(s_performance_new, n = 5)` is

   ```
   # A tibble: 3,819 x 4
     Student_ID  mean_score min_score max_score
     <chr>            <dbl>     <dbl>     <dbl>
   1 SID20131143       71.7        22       100
   2 SID20131151       72.6        40       100
   3 SID20131171       70.9        20        99
   4 SID20131176       70.9        42       100
   5 SID20131177       70.3        29       100
   # … with 3,814 more rows
   ```
…
   To check your answer:

   The output of `print(department_engie, n = 5)` is

   ```
   # A tibble: 17 x 2
     Department_ID Department_Name
     <chr>         <chr>
   1 IDEPT4670     Aerospace Engineering
   2 IDEPT5528     Biosciences and Bioengineering
   3 IDEPT3115     Chemical Engineering
   4 IDEPT4938     Civil Engineering
   5 IDEPT1423     Computer Science & Engineering
   # … with 12 more rows
   ```


6. From `employee_new`, extract a tibble `employee_engie` by inner-joining
   `department_engie` and transforming `Department_Name` into a factor with
   levels ordered by frequency.
   Hint: you can use `fct_infreq()`.
   Note that the inner-join is used because there is no employee record
   for three engineering departments. Hence, another join would create NAs.

   To check your answer:

   The output of `print(employee_engie, n = 5)` is

   ```
   # A tibble: 422 x 6
     Employee_ID Department_ID   age seniority seniority_level
     <chr>       <chr>         <dbl>     <dbl> <fct>
   1 IU196557    IDEPT4938        37        10 junior
   2 IU449901    IDEPT2357        34        10 junior
   3 IU206427    IDEPT4670        48        11 senior
   4 IU572796    IDEPT1142        42        12 senior
   5 IU393717    IDEPT1825        47        10 junior
   # … with 417 more rows, and 1 more variable: Department_Name <fct>
   ```
…
   To check your answer:

   The output of `print(student_engie, n = 5)` is

   ```
   # A tibble: 1,740 x 8
     Student_ID Department_Admi…   age school_year mean_score min_score
     <chr>      <chr>            <dbl> <fct>            <dbl>     <dbl>
   1 SID201311… IDEPT7783           24 graduate          71.7        22
   2 SID201311… IDEPT8473           24 graduate          70.9        42
   3 SID201311… IDEPT5528           24 graduate          70.3        29
   4 SID201311… IDEPT8473           24 graduate          64.3        40
   5 SID201311… IDEPT3115           24 graduate          69.8        21
   # … with 1,735 more rows, and 2 more variables: max_score <dbl>,
   #   Department_Name <chr>
   ```
…
