…
   The output of `print(people, n = 10)` is

   ```
   # A tibble: 184 x 5
      vertex.names email_id      person_name    role        dept
             <dbl> <chr>         <chr>          <chr>       <chr>
    1            1 albert.meyers Albert Meyers  Employee    Specialist
    2            2 a..martin     Thomas Martin  Vice Presi… <NA>
    3            3 andrea.ring   Andrea Ring    <NA>        <NA>
    4            4 andrew.lewis  Andrew Lewis   Director    <NA>
    5            5 andy.zipper   Andy Zipper    Vice Presi… Enron Online
    6            6 a..shankman   Jeffrey Shank… President   Enron Global…
    7            7 barry.tychol… Barry Tycholiz Vice Presi… <NA>
    8            8 benjamin.rog… Benjamin Roge… Employee    Associate
    9            9 bill.rapp     Bill Rapp      <NA>        <NA>
   10           10 bill.williams <NA>           <NA>        <NA>
   # … with 174 more rows
   ```
…
4. From `people`, extract a tibble `people_new` that adds the missing names
   using the function you just created.
   To do that, you can use `mutate()`, `ifelse()`, and `is.na()`. If the name
   is missing, extract it from `email_id` using `email_id_to_name`. If the
   name is not missing, do not modify it.

   To check your answer:

   The output of `print(people_new, n = 10)` is

   ```
   # A tibble: 184 x 5
      vertex.names email_id      person_name    role        dept
             <dbl> <chr>         <chr>          <chr>       <chr>
    1            1 albert.meyers Albert Meyers  Employee    Specialist
    2            2 a..martin     Thomas Martin  Vice Presi… <NA>
    3            3 andrea.ring   Andrea Ring    <NA>        <NA>
    4            4 andrew.lewis  Andrew Lewis   Director    <NA>
    5            5 andy.zipper   Andy Zipper    Vice Presi… Enron Online
    6            6 a..shankman   Jeffrey Shank… President   Enron Global…
    7            7 barry.tychol… Barry Tycholiz Vice Presi… <NA>
    8            8 benjamin.rog… Benjamin Roge… Employee    Associate
    9            9 bill.rapp     Bill Rapp      <NA>        <NA>
   10           10 bill.williams Bill Williams  <NA>        <NA>
   # … with 174 more rows
   ```
…
7. From `email_w_names`, extract a tibble `sender_role_count` that
   contains the number of emails sent by each role, sorted in descending
   order.
   Hint: to do that, you can use `group_by()`, `summarize()` and `arrange()`.

   To check your answer:

   The output of `print(sender_role_count, n = 5)` is

   ```
   # A tibble: 9 x 2
     sender_role    count
     <fct>          <int>
   1 Employee       16394
   2 Vice President  8300
   3 President       1879
   4 CEO             1703
   5 Director        1655
   # … with 4 more rows
   ```
…
   To check your answer:

   The output of `print(count_by_month, n = 5)` is

   ```
   # A tibble: 265 x 3
   # Groups:   date [38]
     date                sender_role       count
     <dttm>              <fct>             <int>
   1 1998-11-01 00:00:00 Employee              7
   2 1998-11-01 00:00:00 Managing Director     2
   3 1998-12-01 00:00:00 Employee             15
   4 1998-12-01 00:00:00 Managing Director     3
   5 1998-12-01 00:00:00 Vice President        2
   # … with 260 more rows
   ```
…
