…
In the whole exercise, do NOT use a `for`, `while`, or `repeat` loop!

1. Load the `tidyverse`,`lubridates` and `rattle` packages and use
   `theme_set(theme_light())` to set the theme for the rest of the exercise.
   Then, use `data(weather)` to read the dataset `weather` from the
   `rattle` package, and convert it into a tibble `weather` using
   `as_tibble()`.

   To check your answer:

   The output of `print(weather, n = 5)` is

   ```
   # A tibble: 366 x 24
     Date       Location MinTemp MaxTemp Rainfall Evaporation Sunshine
     <date>     <fct>      <dbl>   <dbl>    <dbl>       <dbl>    <dbl>
   1 2007-11-01 Canberra     8      24.3      0           3.4      6.3
   2 2007-11-02 Canberra    14      26.9      3.6         4.4      9.7
   3 2007-11-03 Canberra    13.7    23.4      3.6         5.8      3.3
   4 2007-11-04 Canberra    13.3    15.5     39.8         7.2      9.1
   5 2007-11-05 Canberra     7.6    16.1      2.8         5.6     10.6
   # … with 361 more rows, and 17 more variables: WindGustDir <ord>,
   #   WindGustSpeed <dbl>, WindDir9am <ord>, WindDir3pm <ord>,
   #   WindSpeed9am <dbl>, WindSpeed3pm <dbl>, Humidity9am <int>,
   #   Humidity3pm <int>, Pressure9am <dbl>, Pressure3pm <dbl>,
   #   Cloud9am <int>, Cloud3pm <int>, Temp9am <dbl>, Temp3pm <dbl>,
   #   RainToday <fct>, RISK_MM <dbl>, RainTomorrow <fct>
   ```
…
   To check your answer:

   The output of `print(weather_9am, n = 5)` is

   ```
   # A tibble: 366 x 7
     Date                WindDir WindSpeed Humidity Pressure Cloud  Temp
     <dttm>              <ord>       <dbl>    <int>    <dbl> <int> <dbl>
   1 2007-11-01 09:00:00 SW              6       68    1020.     7  14.4
   2 2007-11-02 09:00:00 E               4       80    1012.     5  17.5
   3 2007-11-03 09:00:00 N               6       82    1010.     8  15.4
   4 2007-11-04 09:00:00 WNW            30       62    1006.     2  13.5
   5 2007-11-05 09:00:00 SSE            20       68    1018.     7  11.1
   # … with 361 more rows
   ```

   The output of `print(weather_3pm, n = 5)` is

   ```
   # A tibble: 366 x 7
     Date                WindDir WindSpeed Humidity Pressure Cloud  Temp
     <dttm>              <ord>       <dbl>    <int>    <dbl> <int> <dbl>
   1 2007-11-01 15:00:00 NW             20       29    1015      7  23.6
   2 2007-11-02 15:00:00 W              17       36    1008.     3  25.7
   3 2007-11-03 15:00:00 NNE             6       69    1007.     7  20.2
   4 2007-11-04 15:00:00 W              24       56    1007      7  14.1
   5 2007-11-05 15:00:00 ESE            28       49    1018.     7  15.4
   # … with 361 more rows
   ```
…
   To check your answer:

   The output of `print(humidity_temp, n = 5)` is

   ```
   # A tibble: 1,464 x 4
      yday hour  name     value
     <dbl> <fct> <chr>    <dbl>
   1     1 9     Humidity  50
   2     1 9     Temp      21.9
   3     1 15    Humidity  20
   4     1 15    Temp      31.8
   5     2 9     Humidity  43
   # … with 1,459 more rows
   ```
…
   To check your answer:

   The output of `print(weather_wind_9am, n = 5)` is

   ```
   # A tibble: 366 x 3
     WindDir  Temp Hour
     <ord>   <dbl> <chr>
   1 SW       14.4 9am
   2 E        17.5 9am
   3 N        15.4 9am
   4 WNW      13.5 9am
   5 SSE      11.1 9am
   # … with 361 more rows
   ```

   The output of `print(weather_wind_3pm, n = 5)` is

   ```
   # A tibble: 366 x 3
     WindDir  Temp Hour
     <ord>   <dbl> <chr>
   1 NW       23.6 3pm
   2 W        25.7 3pm
   3 NNE      20.2 3pm
   4 W        14.1 3pm
   5 ESE      15.4 3pm
   # … with 361 more rows
   ```

   The output of `print(weather_wind, n = 5)` is

   ```
   # A tibble: 700 x 4
     WindDir  Temp Hour  WindMainDir
     <ord>   <dbl> <fct> <fct>
   1 SW       14.4 9am   S
   2 E        17.5 9am   E
   3 N        15.4 9am   N
   4 WNW      13.5 9am   W
   5 SSE      11.1 9am   S
   # … with 695 more rows
   ```
…
