…
2. From `ratings`, extract a new tibble `ratings_per_year` by adding a new
   column `year`, corresponding to the year of the observation, and then
   calculating, for each `year`:
     - `mean`, i.e. the mean rating,
     - `n`, the number of ratings,
     - `sd`, the standard deviation of the ratings,
     - `se`,  the standard error of the number of ratings, computed as
       `1.96 * sd / sqrt(n)`.

   To check your answer:

   The output of `print(ratings_per_year, n = 5)` is

   ```
   # A tibble: 20 x 5
      year  mean     n    sd     se
     <dbl> <dbl> <int> <dbl>  <dbl>
   1  1996  3.56  4089 0.985 0.0302
   2  1997  3.56  1750 1.01  0.0474
   3  1998  3.49   753 1.17  0.0833
   4  1999  3.59  2950 1.13  0.0408
   5  2000  3.59  4894 1.12  0.0313
   # … with 15 more rows
   ```
…
6. From `ratings_of_movies`, extract a tibble `ratings_by_genres` by
   computing `average_rating` and `number_of_ratings`, respectively
   the average rating and number of ratings per genre.
   To do this, you can use `group_by()`, `summarize()`.

   To check your answer:

   The output of `print(ratings_by_genres, n = 5)` is

   ```
   # A tibble: 19 x 3
     genres    average_rating number_of_ratings
     <chr>              <dbl>             <int>
   1 Action              3.43             13970
   2 Adventure           3.49             10875
   3 Animation           3.59              2807
   4 Children            3.38              4133
   5 Comedy              3.42             18701
   # … with 14 more rows
   ```
…
